<svg xmlns="http://www.w3.org/2000/svg" width="30" height="21" viewBox="0 0 30 21">
  <g id="Icon_feather-menu" data-name="Icon feather-menu" transform="translate(-3 -7.5)">
    <path id="Path_8025" data-name="Path 8025" d="M4.5,18h27" fill="none" stroke="#fff" stroke-linecap="round" stroke-linejoin="round" stroke-width="3"/>
    <path id="Path_8026" data-name="Path 8026" d="M4.5,9h27" fill="none" stroke="#fff" stroke-linecap="round" stroke-linejoin="round" stroke-width="3"/>
    <path id="Path_8027" data-name="Path 8027" d="M4.5,27h27" fill="none" stroke="#fff" stroke-linecap="round" stroke-linejoin="round" stroke-width="3"/>
  </g>
</svg>
