<svg xmlns="http://www.w3.org/2000/svg" width="17.704" height="11.652" viewBox="0 0 17.704 11.652">
    <path d="M14.892,9.246,7.446,0,0,9.246" transform="translate(1.406 1)" fill="none" stroke="#fff"
          stroke-linecap="round" stroke-linejoin="round" stroke-width="2"/>
</svg>
