<svg xmlns="http://www.w3.org/2000/svg" width="26.426" height="26.43" viewBox="0 0 26.426 26.43">
  <defs>
    <style>
      .cls-1 {
        fill: #54e990;
      }
    </style>
  </defs>
  <g id="Icon_ionic-ios-chatboxes" data-name="Icon ionic-ios-chatboxes" transform="translate(-0.001 0)">
    <path id="Path_8646" data-name="Path 8646" class="cls-1" d="M28.187,11.981H14.107A2.424,2.424,0,0,0,11.686,14.4v9.8a2.419,2.419,0,0,0,2.421,2.414h8.057a.694.694,0,0,1,.483.2l4,3.692c.222.216.591.127.591-.184V27.116c0-.381.241-.5.623-.5h.064A2.645,2.645,0,0,0,30.6,24.2V14.4A2.411,2.411,0,0,0,28.187,11.981Z" transform="translate(-4.175 -4.204)"/>
    <path id="Path_8647" data-name="Path 8647" class="cls-1" d="M11.406,9.6H22.678V5.446a2.072,2.072,0,0,0-2.071-2.071H5.446A2.072,2.072,0,0,0,3.375,5.446v10.5a2.072,2.072,0,0,0,2.071,2.071H9.329V11.667A2.081,2.081,0,0,1,11.406,9.6Z" transform="translate(-3.374 -3.375)"/>
  </g>
</svg>
