<svg xmlns="http://www.w3.org/2000/svg" width="24.243" height="22.467" viewBox="0 0 24.243 22.467">
    <g id="Icon_ionic-ios-wallet" data-name="Icon ionic-ios-wallet" transform="translate(-2.875 -3.988)">
        <path id="Path_8623" data-name="Path 8623" d="M23.266,11.25H6.727A3.355,3.355,0,0,0,3.375,14.6v9.387a3.355,3.355,0,0,0,3.352,3.352H23.266a3.355,3.355,0,0,0,3.352-3.352V14.6A3.355,3.355,0,0,0,23.266,11.25Z" transform="translate(0 -1.386)" fill="none" stroke="#606060" stroke-width="1" />
        <path id="Path_8624" data-name="Path 8624" d="M20.083,4.556,6.958,7.12C5.953,7.344,4.5,8.355,4.5,9.584A3.52,3.52,0,0,1,7.238,8.523H23.274V7.377a3.208,3.208,0,0,0-.777-2.1h0A2.642,2.642,0,0,0,20.083,4.556Z" transform="translate(-0.231)" fill="none" stroke="#606060" stroke-width="1" />
    </g>
</svg>