<svg xmlns="http://www.w3.org/2000/svg" xmlns:xlink="http://www.w3.org/1999/xlink" width="334" height="60" viewBox="0 0 342.993 67.002">
  <defs>
    <linearGradient id="linear-gradient" x1="0.5" y1="1" x2="0.5" gradientUnits="objectBoundingBox">
      <stop offset="0" stop-color="#fff"/>
      <stop offset="0.102" stop-color="#fefdf8"/>
      <stop offset="0.244" stop-color="#fef9e6"/>
      <stop offset="0.41" stop-color="#fdf2c8"/>
      <stop offset="0.595" stop-color="#fce89e"/>
      <stop offset="0.795" stop-color="#fadc69"/>
      <stop offset="1" stop-color="#f9ce2a"/>
    </linearGradient>
    <linearGradient id="linear-gradient-2" y1="0.5" x2="1" y2="0.5" gradientUnits="objectBoundingBox">
      <stop offset="0" stop-color="#e15921"/>
      <stop offset="1" stop-color="#f9ce2a"/>
    </linearGradient>
  </defs>
  <g id="Pattern" transform="translate(-863.796 -571.023)">
    <path id="Path_2208" data-name="Path 2208" d="M865.825,636.5c5.19-10.024,12.907-21.8,21.273-20.881,6.518.72,8.408,7.494,13.169,7.985,11.9,1.226,10.752-32.322,23.171-32.322,9.118,0,6.7,20.676,15.005,20.96,8.229.279,8.647-35.776,18.044-35.469,9.371.308,6.562,42.647,14.508,42.865,10.31.279,9.773-22.018,18.273-22.084,7.106-.052,10.495,18.094,15.652,18.372,11.4.613,9.877-36.39,19.753-36.39,10.13,0,6.754,31.318,17.917,31.783,7.343.308,10.5-14.1,19.5-13.511,9.3.615,11.522,27.632,22.537,28.251,8.608.487,12.157-14.74,22.034-14.125,7.352.456,10.2,14.149,15.194,14.74,10.382,1.229,10.512-52.2,21.944-52.2,13.334,0,9.96,43.17,20.855,45.447,7.343,1.536,11.306-8.968,18.739-9.212,9.371-.308,16.51,15.827,21.365,25.794Z" opacity="0.32" fill="url(#linear-gradient)"/>
    <g id="Group_17" data-name="Group 17">
      <path id="Path_2209" data-name="Path 2209" d="M1204.761,638.023a1.994,1.994,0,0,1-1.751-1.211l-.959-1.984c-4.354-9.026-10.912-22.625-18.4-22.625-.068,0-.134,0-.2.007-2.868.094-5.243,2.169-7.759,4.367-3.118,2.721-6.668,5.807-11.379,4.817-6.437-1.347-8.531-12.073-10.747-23.43-2.113-10.823-4.3-22.014-9.767-22.014-4.236,0-7.178,14.1-9.542,25.43-3.09,14.816-5.793,27.6-12.6,26.8-3.119-.369-5.212-3.719-7.429-7.267-2.239-3.579-4.552-7.278-7.673-7.473-4.275-.26-7.2,3.138-10.33,6.737-3.283,3.778-6.712,7.7-11.693,7.4-6.892-.388-10.673-8.858-14.007-16.329-2.692-6.03-5.234-11.724-8.546-11.944-3.8-.192-6.477,3.029-9.281,6.5-2.861,3.544-5.817,7.217-10.18,7.025-7.189-.3-9.4-9.915-11.35-18.4-1.863-8.1-3.321-13.409-6.5-13.409-3.235,0-5.287,8.293-7.1,15.606-2.459,9.945-5.214,21.2-12.747,20.807-3.418-.183-5.692-4.6-8.1-9.269-2.2-4.273-4.7-9.112-7.424-9.112-2.6.017-4.119,3.383-6.321,8.924-2.362,5.949-5.322,13.4-12.032,13.171-5.491-.148-6.883-10.349-8.5-22.162-1.122-8.212-2.815-20.626-6.019-20.729-3.347,0-5.758,9.363-7.7,16.894-2.463,9.561-4.788,18.6-10.185,18.6l-.167,0c-5.423-.185-7.284-6.357-8.927-11.807-1.72-5.7-2.982-9.164-6.019-9.164-4.856,0-7.317,7.357-9.916,15.148-2.813,8.415-6,17.944-13.43,17.184-2.819-.292-4.746-2.2-6.6-4.033-1.893-1.87-3.684-3.638-6.576-3.959-5.667-.633-12.362,6.2-19.368,19.751a1.825,1.825,0,0,1-2.8.777,2.784,2.784,0,0,1-.64-3.394c7.985-15.441,15.786-22.861,23.175-22.04,4.126.456,6.7,3,8.768,5.046,1.572,1.554,2.815,2.78,4.387,2.944,4.172.415,6.378-5.318,9.322-14.127,2.852-8.542,6.087-18.225,13.679-18.225,6.094,0,8.166,6.877,9.833,12.4,1.592,5.281,2.738,8.49,5.23,8.575,2.461,0,4.713-8.745,6.358-15.139,2.6-10.109,5.388-20.589,11.684-20.353,6.549.216,8.183,12.182,9.914,24.853.917,6.724,2.454,17.983,4.583,18.04,3.866.168,5.764-4.044,8.284-10.384,2.171-5.471,4.634-11.672,9.932-11.713,5.016,0,8.146,6.069,10.91,11.427,1.5,2.907,3.556,6.888,4.843,6.958.055,0,.112.007.165.007,4.234,0,6.408-8.8,8.513-17.3,2.325-9.4,4.73-19.118,10.985-19.118,6.494,0,8.575,9.037,10.4,17.012,2.032,8.83,3.657,14.631,7.581,14.8l.156,0c2.5,0,4.585-2.577,6.985-5.552,3.156-3.913,6.732-8.4,12.4-7.97,5.577.369,8.788,7.56,11.891,14.515,2.962,6.634,6.026,13.494,10.631,13.754,3.239.151,5.8-2.7,8.709-6.052,3.444-3.961,7.29-8.461,13.331-8.084,5.008.312,8.163,5.36,10.7,9.419,1.592,2.547,3.237,5.179,4.588,5.34q.073.007.145.007c3.3,0,6.083-13.337,8.124-23.112,3.127-14.989,6.081-29.146,13.477-29.146,8.68,0,11.242,13.118,13.716,25.8,1.729,8.867,3.693,18.917,7.486,19.712,3.066.629,5.494-1.493,8.317-3.961,2.769-2.418,5.9-5.159,10.022-5.3.11,0,.218,0,.325,0,9.8,0,16.782,14.467,21.893,25.061l.95,1.969a2.775,2.775,0,0,1-.715,3.374A1.769,1.769,0,0,1,1204.761,638.023Z" fill="url(#linear-gradient-2)"/>
    </g>
  </g>
</svg>
