<svg xmlns="http://www.w3.org/2000/svg" width="18.461" height="18.461" viewBox="0 0 18.461 18.461">
  <g id="Icon_feather-search" data-name="Icon feather-search" transform="translate(0.5 0.5)" opacity="0.6">
    <path id="Path_8461" data-name="Path 8461" d="M19.837,12.168A7.668,7.668,0,1,1,12.168,4.5,7.668,7.668,0,0,1,19.837,12.168Z" transform="translate(-4.5 -4.5)" fill="none" stroke="#000" stroke-linecap="round" stroke-linejoin="round" stroke-width="1"/>
    <path id="Path_8462" data-name="Path 8462" d="M29.145,29.145l-4.17-4.17" transform="translate(-11.891 -11.891)" fill="none" stroke="#000" stroke-linecap="round" stroke-linejoin="round" stroke-width="1"/>
  </g>
</svg>
