<svg xmlns="http://www.w3.org/2000/svg" width="407.45" height="301.096" viewBox="0 0 407.45 301.096">
    <g transform="translate(-1262.05 -1215)">
        <rect width="407.45" height="1" transform="translate(1262.05 1515)" fill="#e7e7e7"/>
        <rect width="407.45" height="1" transform="translate(1262.05 1455)" fill="#e7e7e7"/>
        <rect width="407.45" height="1" transform="translate(1262.05 1395)" fill="#e7e7e7"/>
        <rect width="407.45" height="1" transform="translate(1262.05 1335)" fill="#e7e7e7"/>
        <rect width="407.45" height="1" transform="translate(1262.05 1275)" fill="#e7e7e7"/>
        <rect width="407.45" height="1" transform="translate(1262.05 1215)" fill="#e7e7e7"/>
        <g transform="translate(893.456 197.859)">
            <path
                d="M658.883,1135.368a1.4,1.4,0,0,1-.428-.067l-7.08-2.261a1.314,1.314,0,0,1-.882-.912L634.5,1070.406l-36.928-27.036-6.169,11.612a1.355,1.355,0,0,1-1.023.695l-38.3,5-26.8,44.1a1.351,1.351,0,0,1-.844.6,1.406,1.406,0,0,1-1.042-.158c-7.662-4.578-20.6-12.65-21.158-15.268a1.587,1.587,0,0,1,.022-.777c-.9-1.464-6.757-5.681-12.148-9.084l-14.434,5.292-8.312,14.284a1.385,1.385,0,0,1-1.8.521l-20.112-9.835-11.434,6.951a1.405,1.405,0,0,1-1.613-.116l-14.965-12.433a1.268,1.268,0,0,1-.459-.854l-1.646-17.251-16.44-5.38a1.3,1.3,0,0,1-.9-1.074l-3.41-28.463-7.73-9.507-12.793,20.953a1.389,1.389,0,0,1-1.847.465,1.257,1.257,0,0,1-.488-1.762l13.8-22.6a1.36,1.36,0,0,1,1.078-.638,1.432,1.432,0,0,1,1.157.495l9.189,11.3a1.251,1.251,0,0,1,.276.644l3.356,28.012,16.459,5.387a1.3,1.3,0,0,1,.908,1.1l1.677,17.568,13.795,11.46,11.234-6.83a1.405,1.405,0,0,1,1.342-.059l19.641,9.6,7.916-13.6a1.336,1.336,0,0,1,.7-.579l15.54-5.7a1.412,1.412,0,0,1,1.224.125c5,3.119,13.465,8.728,13.976,11.246a1.787,1.787,0,0,1,0,.728c1.37,1.8,10.163,7.651,18.657,12.778l26.427-43.488a1.356,1.356,0,0,1,.986-.63l38.251-4.994,6.585-12.395a1.348,1.348,0,0,1,.905-.675,1.4,1.4,0,0,1,1.123.236l38.6,28.257a1.283,1.283,0,0,1,.488.711l15.928,61.475,5.646,1.8,15.973-13.084a1.324,1.324,0,0,1,.374-.218l26.163-10.056,4.392-4.851a1.4,1.4,0,0,1,1.229-.431l10.548,1.554,29.061-52.87a1.35,1.35,0,0,1,.912-.661l24.671-5.086a1.352,1.352,0,0,1,1.606.987,1.292,1.292,0,0,1-1.035,1.532l-24.055,4.959-29.216,53.152a1.379,1.379,0,0,1-1.4.674l-10.764-1.585-4.117,4.546a1.366,1.366,0,0,1-.519.353l-26.259,10.093-16.385,13.423A1.389,1.389,0,0,1,658.883,1135.368Z"
                fill="#ff3c92"/>
            <g opacity="0.05">
                <path
                    d="M772.192,1048.182l-24.671,5.087-29.509,53.686-11.5-1.695-4.607,5.086-26.465,10.172-16.554,13.563-7.078-2.261L635.7,1069.657,597.1,1041.4l-6.907,13-38.951,5.086-27.133,44.644s-21.751-13-20.51-14.693-13.327-10.782-13.327-10.782l-15.54,5.7-8.551,14.693-20.8-10.172-12.087,7.346-14.963-12.432-1.727-18.084-17.267-5.652-3.453-28.82-9.189-11.3-13.8,22.605v275.7h399.3Z"
                    fill="#ff3c92"/>
            </g>
        </g>
    </g>
</svg>
